Attr Type,Attr Name,Attr Desc
Article,ART_DEPTH,Article Depth
Article,ART_DESIGNER,Designer Name
Article,ART_HDL,Article Handle Drop Length
Article,ART_HEIGHT,Article Height
Article,ART_HSCODE2,ART - HS Code #2
Article,ART_MATCHING,Article Matching Code
Article,ART_PARENT_ARTICLE,Parent SKU Code
Article,ART_PREFD,Article Pre-Order End Date
Article,ART_PRESD,Article Pre-Order Start Date
Article,ART_SHOELAST,Shoe Last Note
Article,ART_WIDTH,Article Width
SKU,CHEST,Chest
SKU,LENGTH,Length
SKU,SHOULDER,Shoulder
SKU,SHOULDER_STRAP_AVAILABILITY,SHOULDER STRAP AVAILABILITY
SKU,SKU_ADDITIONAL_DETAILS,SKU - Additional Details
SKU,SKU_AGE,SKU - AGE
SKU,SKU_ART_DEPTH,SKU - Article Depth
SKU,SKU_ART_HEIGHT,SKU - Article Height
SKU,SKU_ART_WIDTH,SKU - Article Width
SKU,SKU_BAG_CHARM,SKU BAG CHARM
SKU,SKU_BAG_FLAP_LINING_MATERIAL,SKU - Bag Flap Lining Material
SKU,SKU_BAG_STRAP_LENGTH,SKU - BAG STRAP LENGTH
SKU,SKU_BAG_STRAP_TYPE,SKU BAG STRAP TYPE
SKU,SKU_BASE_STUDS,SKU BASE STUDS
SKU,SKU_BRIDGE_LENGTH,SKU Bridge Length
SKU,SKU_CAPSULE,SKU - Capsule
SKU,SKU_CAPSULE_THEME,SKU - Capsule Theme
SKU,SKU_CATEGORY2,SKU-CATEGORY 2
SKU,SKU_CLOSURETYPE,SKU - Closure Type
SKU,SKU_COLOR,SKU Color
SKU,SKU_COLOURGROUP,SKU - Colour Group
SKU,SKU_COLOURTONE,SKU - Colour Tone
SKU,SKU_COMPARTMENTS,SKU COMPARTMENTS
SKU,SKU_COMPULSARY_SEEDING,SKU Compulsary Seeding
SKU,SKU_CONSTRUCTION,SKU - CONSTRUCTION
SKU,SKU_DELIVERY,SKU - Delivery Date
SKU,SKU_EDITORIALS,EDITORIALS
SKU,SKU_EID_RAM,EID/RAM
SKU,SKU_EMBELLISHMENT,SKU - Embellishment
SKU,SKU_EUCOMPLIANCE,SKU - EU Compliance
SKU,SKU_FRAME_HEIGHT,SKU Frame Height
SKU,SKU_FRAME_WIDTH,SKU Frame Width
SKU,SKU_HANDLE_TYPE,SKU - Handle Type
SKU,SKU_HEELTYPE,SKU - Heel Type
SKU,SKU_HEEL_HEIGHT,SKU - HEELHEIGHT
SKU,SKU_HEEL_MAT,SKU - Heel Material
SKU,SKU_HIERARCHY,SKU - Hierarchy
SKU,SKU_HSCODE1,SKU - HS Code #1
SKU,SKU_HSCODE2,SKU - HS Code #2
SKU,SKU_INSOLE,SKU - Insole Material
SKU,SKU_INSOLETYPE,SKU - Insole TYpe
SKU,SKU_LAPTOP_SIZE,SKU - LAPTOP SIZE
SKU,SKU_LAUNCHDATE2,SKU - Launch Date
SKU,SKU_LAUNCH_TYPE,SKU - Launch Type
SKU,SKU_LEATHER_THICKNESS,SKU - Lether Thickness
SKU,SKU_LENS_HEIGHT,SKU Lens Height
SKU,SKU_LENS_WIDTH,SKU Lens Width
SKU,SKU_LINING,SKU - Lining Material
SKU,SKU_MAIN_MAT,SKU - Main Material
SKU,SKU_MATERIAL_FINISH,SKU - MATERIAL FINISH
SKU,SKU_MATERIAL_PATTERN,SKU - Material Pattern
SKU,SKU_MATERIAL_TYPE,SKU - Material Type
SKU,SKU_MAX_STRAP_LENGTH,SKU - MAX STRAP LENGTH
SKU,SKU_MIN_STRAP_LENGTH,SKU - MIN STRAP LENGTH
SKU,SKU_MODEL,SKU - Model
SKU,SKU_MODEL_CAMPAIGN,MODEL CAMPAIGN
SKU,SKU_MODEL_EDITORIAL,SKU Model Editorial
SKU,SKU_MODIF_TYPE,SKU - Modification Type
SKU,SKU_MULTIFUNCTIONAL,SKU - Multi Functional
SKU,SKU_MUST_BUY_SEEDING,MUST BUY SEEDING
SKU,SKU_NEW_COLOR,SKU - NEW COLOR
SKU,SKU_NEW_CONSTRUCTION,SKU - New Construction
SKU,SKU_NEW_LAUNCH_CODE,SKU - NEW LAUNCH CODE
SKU,SKU_ORGANIC_SEEDING,SKU Organic Seeding
SKU,SKU_OTHER_MAT1,SKU - Other Material #1
SKU,SKU_OTHER_MAT2,SKU - Other Material #2
SKU,SKU_OTHER_MAT3,SKU - Other Material #3
SKU,SKU_OTHER_MAT4,SKU - Other Material #4
SKU,SKU_OTHER_MAT5,SKU - Other Material #5
SKU,SKU_OUTSOLE,SKU - Outsole Material
SKU,SKU_OUTSOLETYPE,SKU - Outsole Type
SKU,SKU_OUTSOLE_NO,SKU - OUTSOLE NO
SKU,SKU_PACKAGING_DEPTH,SKU - Packaging Depth
SKU,SKU_PACKAGING_HEIGHT,SKU - Packaging Height
SKU,SKU_PACKAGING_WIDTH,SKU - Packaging Width
SKU,SKU_PACK_COST_HKD,Packaging Cost - HKD
SKU,SKU_PACK_COST_RMB,Packaging Cost - RMB
SKU,SKU_PACK_COST_SGD,Packaging Cost - SGD
SKU,SKU_PACK_COST_USD,Packaging Cost - USD
SKU,SKU_PAID_SEEDING,SKU Paid Seeding
SKU,SKU_PARENT_ART_NO,SKU - Parent Article Number
SKU,SKU_PARENT_SKU,Parent SKU Code
SKU,SKU_PM_MATCODE,SKU - Product Type
SKU,SKU_PR,PR
SKU,SKU_PRICE_POINT,SKU - Price Point
SKU,SKU_PRIMARY,SKU - Primary
SKU,SKU_PRODUCT,SKU - Product
SKU,SKU_PRODUCT_BRANDING,SKU - Product Branding
SKU,SKU_PRODUCT_CAMPAIGN,Product Campaign
SKU,SKU_PRODUCT_EDITORIAL,SKU Product Editorial
SKU,SKU_PRODUCT_NAME,SKU Product Name
SKU,SKU_PULL_TAB,SKU - PULL TAB
SKU,SKU_REFERENCE_MATERIAL,SKU - REFERENCE MATERIAL
SKU,SKU_REMARK,SKU - Remark
SKU,SKU_SEASONAL_CAMPAIGN,SKU Seasonal Campaign
SKU,SKU_SHOULDER_DROP_LENGTH,SKU - Shoulder Drop Length
SKU,SKU_SIZE,SKU - Size
SKU,SKU_SPECIAL_CAPSULE_CAMPAIGN,SKU Special Capsule Campaign
SKU,SKU_STRAP_TYPE,SKU - Strap Type
SKU,SKU_STRAP_WIDTH,SKU - STRAP WIDTH
SKU,SKU_STYLE,SKU - Style
SKU,SKU_SUSTAINABLE,SKU Sustainable Indicator
SKU,SKU_TEXTURE,SKU - TEXTURE
SKU,SKU_THEME,SKU - Theme
SKU,SKU_THEME_SEQUENCE,SKU - Theme Sequence
SKU,SKU_TOEBOX,SKU - Toe Box
SKU,SKU_TYPE,SKU - Type
SKU,SKU_UNISEX,SKU - Unisex Indicator
SKU,SKU_UPPER_PU_THICKNESS,SKU - Upper PU Thickness
SKU,SKU_WALL,SKU - Wall
SKU,SKU_WALL_THEME,SKU - Wall Theme
SKU,SKU_WEIGHT,SKU WEIGHT
SKU,SKU_WINDOW,SKU - Window
