SAP Code,SAP Value,Batch Size
01,34,34
02,35,35
03,36,36
04,37,37
05,38,38
06,39,39
07,40,40
08,41,41
09,42,42
10,43,43
11,44,44
12,45,45
13,46,46
14,100,100
15,105,105
16,110,110
17,115,115
18,120,120
19,125,125
20,Small,S
21,Medium,M
22,Large,L
23,Regular,R
32,Extra Small,XS
33,Extra Large,XL
47,28X,28X
48,29X,29X
49,30X,30X
50,31X,31X
51,32X,32X
52,33X,33X
53,Extra Extra Large,XXL
54,27X,27X
55,42X,42X
56,43X,43X
57,44X,44X
58,24X,24X
59,25X,25X
60,26X,26X
61,Extra Extra Extra Large,X3L
62,Long,LG
63,Compact,CP
64,Extra Extra Small,XXS
65,4X Extra Large,4XL
66,5X Extra Large,5XL
67,16X,16X
68,17X,17X
69,18X,18X
70,19X,19X
71,20X,20X
72,21X,21X
73,22X,22X
74,23X,23X
75,Short,SH
76,A,A
77,C,C
78,E,E
ZZ,Undefined,ZZ
